…
for (i in 1:100) {
  
  output[[i]] = sim_mean_sd(n_obs = 30)
  
}

sim_results = 
  bind_rows(output)

sim_results 
```

    ## # A tibble: 100 × 2
    ##     mean    sd
    ##    <dbl> <dbl>
    ##  1  5.62  2.57
    ##  2  5.87  2.17
    ##  3  5.05  2.07
    ##  4  4.89  2.45
    ##  5  5.01  2.01
    ##  6  5.27  1.55
    ##  7  5.11  2.03
    ##  8  5.01  1.84
    ##  9  4.63  1.79
    ## 10  5.66  2.06
    ## # ℹ 90 more rows
…
