…
}

nsduh_import(html = nsduh_html, table_number = 1, outcome_name = "marj")
```

    ## # A tibble: 510 × 5
    ##    State   age   year      percent outcome
    ##    <chr>   <chr> <chr>       <dbl> <chr>  
    ##  1 Alabama 12+   2013-2014    9.98 marj   
    ##  2 Alabama 12+   2014-2015    9.6  marj   
    ##  3 Alabama 12-17 2013-2014    9.9  marj   
    ##  4 Alabama 12-17 2014-2015    9.71 marj   
    ##  5 Alabama 18-25 2013-2014   27.0  marj   
    ##  6 Alabama 18-25 2014-2015   26.1  marj   
    ##  7 Alabama 26+   2013-2014    7.1  marj   
    ##  8 Alabama 26+   2014-2015    6.81 marj   
    ##  9 Alabama 18+   2013-2014    9.99 marj   
    ## 10 Alabama 18+   2014-2015    9.59 marj   
    ## # ℹ 500 more rows
